…
## Step 4: Calculate total carbon emissions

Now we use the
[`calc_total_emissions()`](../reference/calc_total_emissions.md)
function from SECFC to estimate each respondent’s carbon footprint based
on their survey responses. A new data frame,
questionnaire_example_total, is now available in your R environment. It
has several new variables, including TotalEmissions, the individual
respondent’s overall estimated footprint.

``` r
calc_total_emissions(questionnaire_example)
#> # A tibble: 50 × 45
#>    RecordedDate T_01_CarUsage T_02_CarType T_03_CarDistance T_04_PublicTransport
#>    <chr>                <dbl> <chr>                   <dbl>                <dbl>
#>  1 30/6/2024 2…           5.5 Hybrid Vehi…             10                      5
#>  2 30/6/2024 2…           3.5 Hybrid Vehi…              5                      4
#>  3 30/6/2024 2…           3.5 Diesel Vehi…             30.5                    5
#>  4 30/6/2024 2…           5.5 Hybrid Vehi…             10                      4
#>  5 30/6/2024 2…           7   Hybrid Vehi…             10                      4
#>  6 30/6/2024 2…           5.5 Hybrid Vehi…             30.5                    5
#>  7 30/6/2024 2…           7   Hybrid Vehi…             51                      5
#>  8 30/6/2024 2…           5.5 Hybrid Vehi…              5                      5
#>  9 30/6/2024 2…           3.5 Diesel Vehi…             51                      5
#> 10 30/6/2024 2…           3.5 Hybrid Vehi…             10                      4
#> # ℹ 40 more rows
#> # ℹ 40 more variables: T_05_PublicTransport <dbl>, T_06_AirTravelLong <dbl>,
#> #   T_07_AirTravelShort <dbl>, T_08_LongDistanceTra <dbl>, PETS_4 <dbl>,
#> #   PETS_5 <dbl>, `E1_Electricity Usage` <dbl>, EH_02_ElectricityBil_1 <dbl>,
#> #   EH_05_NaturalGasBill_1 <dbl>, EH_07_WaterBill <dbl>,
#> #   F_01_DietaryHabits_5 <dbl>, F_01_DietaryHabits_6 <dbl>,
#> #   F_01_DietaryHabits_7 <dbl>, F_01_DietaryHabits_4 <dbl>, …
…
